<?xml version="1.0" encoding="UTF-8" standalone="no"?>
<svg
   width="96"
   height="24"
   style="vector-effect: non-scaling-stroke;"
   xml:space="preserve"
   version="1.1"
   id="svg21"
   sodipodi:docname="pt_img_infoiber.svg"
   inkscape:version="1.2.1 (9c6d41e410, 2022-07-14)"
   xmlns:inkscape="http://www.inkscape.org/namespaces/inkscape"
   xmlns:sodipodi="http://sodipodi.sourceforge.net/DTD/sodipodi-0.dtd"
   xmlns="http://www.w3.org/2000/svg"
   xmlns:svg="http://www.w3.org/2000/svg"
   xmlns:rdf="http://www.w3.org/1999/02/22-rdf-syntax-ns#"
   xmlns:cc="http://creativecommons.org/ns#"
   xmlns:dc="http://purl.org/dc/elements/1.1/"><sodipodi:namedview
   id="namedview23"
   pagecolor="#505050"
   bordercolor="#ffffff"
   borderopacity="1"
   inkscape:showpageshadow="0"
   inkscape:pageopacity="0"
   inkscape:pagecheckerboard="1"
   inkscape:deskcolor="#505050"
   showgrid="false"
   inkscape:zoom="11.44636"
   inkscape:cx="65.173558"
   inkscape:cy="0.87364019"
   inkscape:window-width="1920"
   inkscape:window-height="1017"
   inkscape:window-x="-8"
   inkscape:window-y="-8"
   inkscape:window-maximized="1"
   inkscape:current-layer="svg21" />
 <title
   id="title2">PT_Img_infoiber_a</title>
 <defs
   style="vector-effect: non-scaling-stroke;"
   id="defs2">
  <clipPath
   style="vector-effect: non-scaling-stroke;"
   id="clipPath18"
   clipPathUnits="userSpaceOnUse">
   <path
   style="vector-effect: non-scaling-stroke;"
   id="path16"
   d="m12.24987,56.31243l50,0l0,-50l-50,0l0,50z" />
  </clipPath>
 
  
  
  
  
  
  
 <clipPath
   clipPathUnits="userSpaceOnUse"
   id="clipPath18-1"><path
     d="M 0,50 H 50 V 0 H 0 Z"
     id="path16-2" /></clipPath><clipPath
   clipPathUnits="userSpaceOnUse"
   id="clipPath495"><g
     id="g499"
     transform="translate(-62.6699,-82.1602)"><path
       d="M 0,422.667 H 233.999 V 0 H 0 Z"
       id="path497" /></g></clipPath><clipPath
   clipPathUnits="userSpaceOnUse"
   id="clipPath489"><g
     id="g493"
     transform="translate(-56.8047,-94.0244)"><path
       d="M 0,422.667 H 233.999 V 0 H 0 Z"
       id="path491" /></g></clipPath><clipPath
   clipPathUnits="userSpaceOnUse"
   id="clipPath483"><g
     id="g487"><path
       d="M 0,422.667 H 233.999 V 0 H 0 Z"
       id="path485" /></g></clipPath><clipPath
   clipPathUnits="userSpaceOnUse"
   id="clipPath477"><g
     id="g481"
     transform="translate(-134.9922,-31.1475)"><path
       d="M 0,422.667 H 233.999 V 0 H 0 Z"
       id="path479" /></g></clipPath><clipPath
   clipPathUnits="userSpaceOnUse"
   id="clipPath471"><g
     id="g475"
     transform="translate(-220.9844,-21.7334)"><path
       d="M 0,422.667 H 233.999 V 0 H 0 Z"
       id="path473" /></g></clipPath><clipPath
   clipPathUnits="userSpaceOnUse"
   id="clipPath465"><g
     id="g469"
     transform="translate(-177.9443,-48.208)"><path
       d="M 0,422.667 H 233.999 V 0 H 0 Z"
       id="path467" /></g></clipPath></defs>
 <path
   id="svg_4"
   style="fill:#ffffff;fill-opacity:1"
   d="M 31.169922 11.160156 C 30.997876 11.160156 30.835817 11.173184 30.683594 11.197266 C 30.531371 11.221348 30.390213 11.256524 30.257812 11.304688 C 30.125412 11.352851 30.003203 11.414082 29.890625 11.486328 C 29.778047 11.558574 29.674786 11.641954 29.582031 11.738281 C 29.490772 11.833475 29.410241 11.940198 29.341797 12.056641 C 29.273353 12.173084 29.217504 12.299808 29.171875 12.4375 C 29.126246 12.575192 29.091174 12.721919 29.068359 12.880859 C 29.045545 13.0398 29.033203 13.210436 29.033203 13.390625 C 29.033203 13.570814 29.045545 13.741167 29.068359 13.900391 C 29.091174 14.059614 29.126246 14.207445 29.171875 14.345703 C 29.217504 14.483961 29.273353 14.611223 29.341797 14.728516 C 29.410241 14.845809 29.490772 14.952501 29.582031 15.048828 C 29.674786 15.144022 29.778047 15.227432 29.890625 15.298828 C 30.003203 15.370224 30.125412 15.430919 30.257812 15.478516 C 30.390213 15.526113 30.531371 15.562139 30.683594 15.585938 C 30.835817 15.609736 30.997876 15.621094 31.169922 15.621094 C 31.341967 15.621094 31.504775 15.609736 31.65625 15.585938 C 31.807725 15.562139 31.949174 15.526113 32.080078 15.478516 C 32.210982 15.430919 32.331073 15.370224 32.441406 15.298828 C 32.55174 15.227432 32.652425 15.144022 32.742188 15.048828 C 32.833446 14.953634 32.912025 14.849148 32.980469 14.732422 C 33.048913 14.615696 33.106714 14.487868 33.152344 14.349609 C 33.197973 14.211351 33.231092 14.062134 33.253906 13.902344 C 33.276721 13.742553 33.289062 13.571947 33.289062 13.390625 C 33.289062 13.209303 33.276721 13.038697 33.253906 12.878906 C 33.231092 12.719116 33.197973 12.569899 33.152344 12.431641 C 33.106714 12.293382 33.048913 12.165554 32.980469 12.048828 C 32.912025 11.932102 32.833446 11.825663 32.742188 11.730469 C 32.652425 11.635275 32.55174 11.553818 32.441406 11.482422 C 32.331073 11.411026 32.210982 11.350331 32.080078 11.302734 C 31.949174 11.255137 31.807725 11.219111 31.65625 11.195312 C 31.504775 11.171514 31.341967 11.160156 31.169922 11.160156 z " /><path
   id="path5485"
   style="fill:#ffffff;fill-opacity:1"
   d="M 43.78125 11.009766 C 43.470072 11.009766 43.188379 11.044466 42.935547 11.111328 C 42.809131 11.144759 42.689955 11.186181 42.578125 11.236328 C 42.466295 11.286475 42.362868 11.345247 42.265625 11.412109 C 42.168382 11.477839 42.078916 11.550398 42 11.630859 C 41.921084 11.711321 41.851606 11.799337 41.791016 11.894531 C 41.730426 11.989725 41.678982 12.093198 41.636719 12.203125 C 41.594455 12.313052 41.562999 12.430028 41.539062 12.554688 L 45.712891 12.554688 C 45.712891 12.439094 45.700175 12.32887 45.677734 12.224609 C 45.655294 12.120349 45.623006 12.020662 45.578125 11.927734 C 45.533244 11.834807 45.475525 11.747611 45.408203 11.666016 C 45.340881 11.584421 45.263591 11.509716 45.173828 11.439453 C 45.085561 11.368057 44.990777 11.3055 44.888672 11.251953 C 44.786567 11.198406 44.676491 11.152885 44.560547 11.117188 C 44.444603 11.08149 44.321188 11.054958 44.191406 11.037109 C 44.061624 11.01926 43.924871 11.009766 43.78125 11.009766 z " /><path
   id="path6270"
   style="fill:#ffffff;fill-opacity:1;stroke-width:0.99672"
   d="M 17.304688 -3.4707031 C 7.7829518 -3.4707031 0.064453125 3.4549506 0.064453125 11.998047 C 0.064453125 20.541141 7.7829518 27.466797 17.304688 27.466797 L 89.988281 27.466797 C 99.510024 27.466797 107.22852 20.541141 107.22852 11.998047 C 107.22852 3.4549506 99.510024 -3.4707031 89.988281 -3.4707031 L 17.304688 -3.4707031 z M 78.412109 8.8066406 C 78.880859 8.8066406 79.292318 8.8665366 79.646484 8.9863281 C 80.000651 9.1061197 80.294922 9.2753908 80.529297 9.4941406 C 80.76888 9.7128904 80.945964 9.9759118 81.060547 10.283203 C 81.180338 10.585286 81.240234 10.921224 81.240234 11.291016 C 81.240234 11.608724 81.198568 11.905599 81.115234 12.181641 C 81.031901 12.452474 80.909505 12.694662 80.748047 12.908203 C 80.586589 13.116536 80.388672 13.296224 80.154297 13.447266 C 79.919922 13.593099 79.649088 13.694662 79.341797 13.751953 L 79.341797 13.767578 C 79.690755 13.804036 80.008464 13.892578 80.294922 14.033203 C 80.586588 14.16862 80.836589 14.340495 81.044922 14.548828 C 81.253255 14.757161 81.414714 15.001953 81.529297 15.283203 C 81.649088 15.559245 81.708984 15.85612 81.708984 16.173828 C 81.708984 16.637369 81.628255 17.056641 81.466797 17.431641 C 81.305339 17.801432 81.073567 18.119141 80.771484 18.384766 C 80.469401 18.65039 80.097005 18.85612 79.654297 19.001953 C 79.211589 19.142578 78.711588 19.212891 78.154297 19.212891 C 77.815756 19.212891 77.498047 19.184245 77.201172 19.126953 C 76.909505 19.07487 76.649088 19.01237 76.419922 18.939453 C 76.190755 18.861328 76.000651 18.783203 75.849609 18.705078 C 75.698568 18.621745 75.602214 18.561849 75.560547 18.525391 C 75.524089 18.488932 75.495443 18.452474 75.474609 18.416016 C 75.453776 18.379557 75.435547 18.335286 75.419922 18.283203 C 75.404297 18.23112 75.391276 18.16862 75.380859 18.095703 C 75.375651 18.017578 75.373047 17.923828 75.373047 17.814453 C 75.373047 17.626953 75.391276 17.496745 75.427734 17.423828 C 75.464193 17.350912 75.516276 17.314453 75.583984 17.314453 C 75.630859 17.314453 75.722005 17.35612 75.857422 17.439453 C 75.998047 17.522786 76.17513 17.613932 76.388672 17.712891 C 76.607422 17.806641 76.860026 17.895182 77.146484 17.978516 C 77.438151 18.061849 77.761068 18.103516 78.115234 18.103516 C 78.458984 18.103516 78.761068 18.059245 79.021484 17.970703 C 79.281901 17.882162 79.500651 17.757161 79.677734 17.595703 C 79.854818 17.434245 79.98763 17.24414 80.076172 17.025391 C 80.164713 16.801433 80.208984 16.559245 80.208984 16.298828 C 80.208984 16.01237 80.151693 15.754557 80.037109 15.525391 C 79.927734 15.296224 79.763672 15.098307 79.544922 14.931641 C 79.33138 14.764974 79.065755 14.63737 78.748047 14.548828 C 78.435547 14.460287 78.078776 14.416016 77.677734 14.416016 L 76.716797 14.416016 C 76.67513 14.416016 76.633464 14.408203 76.591797 14.392578 C 76.555339 14.371745 76.521484 14.340495 76.490234 14.298828 C 76.464193 14.257162 76.440755 14.202474 76.419922 14.134766 C 76.404297 14.067057 76.396484 13.978516 76.396484 13.869141 C 76.396484 13.770182 76.404297 13.689453 76.419922 13.626953 C 76.435547 13.559245 76.45638 13.507161 76.482422 13.470703 C 76.513672 13.429037 76.547526 13.400391 76.583984 13.384766 C 76.620443 13.363932 76.662109 13.353516 76.708984 13.353516 L 77.591797 13.353516 C 77.935547 13.353516 78.242839 13.309245 78.513672 13.220703 C 78.789713 13.132162 79.021485 13.004557 79.208984 12.837891 C 79.401693 12.671224 79.547526 12.473307 79.646484 12.244141 C 79.750651 12.009766 79.802734 11.749349 79.802734 11.462891 C 79.802734 11.254557 79.76888 11.05664 79.701172 10.869141 C 79.633464 10.676432 79.531901 10.509765 79.396484 10.369141 C 79.261068 10.228516 79.086588 10.119141 78.873047 10.041016 C 78.664714 9.9576824 78.422526 9.9160156 78.146484 9.9160156 C 77.844401 9.9160156 77.565755 9.9628907 77.310547 10.056641 C 77.060547 10.145182 76.836588 10.241537 76.638672 10.345703 C 76.440755 10.44987 76.276693 10.548828 76.146484 10.642578 C 76.016276 10.73112 75.92513 10.775391 75.873047 10.775391 C 75.836589 10.775391 75.802734 10.770182 75.771484 10.759766 C 75.745443 10.744141 75.722005 10.718099 75.701172 10.681641 C 75.685547 10.639974 75.672526 10.585286 75.662109 10.517578 C 75.656901 10.444662 75.654297 10.350911 75.654297 10.236328 C 75.654297 10.158203 75.656901 10.090495 75.662109 10.033203 C 75.667318 9.9707032 75.677734 9.9186197 75.693359 9.8769531 C 75.708984 9.8300782 75.727214 9.7884114 75.748047 9.7519531 C 75.76888 9.7154948 75.802734 9.6738281 75.849609 9.6269531 C 75.901693 9.5748698 76.003255 9.501953 76.154297 9.4082031 C 76.305338 9.3144532 76.490235 9.2233072 76.708984 9.1347656 C 76.932942 9.0410157 77.188151 8.9628906 77.474609 8.9003906 C 77.766276 8.8378907 78.078776 8.8066406 78.412109 8.8066406 z M 65.513672 11.595703 C 65.664713 11.595703 65.784505 11.600911 65.873047 11.611328 C 65.966797 11.616536 66.037109 11.629557 66.083984 11.650391 C 66.136068 11.671224 66.172526 11.697266 66.193359 11.728516 C 66.219401 11.759766 66.242839 11.798828 66.263672 11.845703 L 68.248047 17.642578 L 68.279297 17.736328 L 68.302734 17.642578 L 70.263672 11.845703 C 70.274089 11.798828 70.292318 11.759766 70.318359 11.728516 C 70.344401 11.697266 70.380859 11.671224 70.427734 11.650391 C 70.479818 11.629557 70.547526 11.616536 70.630859 11.611328 C 70.719401 11.600911 70.833985 11.595703 70.974609 11.595703 C 71.094401 11.595703 71.193359 11.598307 71.271484 11.603516 C 71.349609 11.608724 71.409505 11.621745 71.451172 11.642578 C 71.498047 11.663411 71.529297 11.689453 71.544922 11.720703 C 71.565755 11.746745 71.576172 11.780599 71.576172 11.822266 C 71.576172 11.843099 71.573568 11.866536 71.568359 11.892578 C 71.568359 11.913411 71.565755 11.936849 71.560547 11.962891 C 71.555339 11.988932 71.547526 12.017578 71.537109 12.048828 C 71.531901 12.080078 71.524089 12.113932 71.513672 12.150391 L 69.115234 18.830078 C 69.094401 18.88737 69.065755 18.934245 69.029297 18.970703 C 68.998047 19.007161 68.948568 19.035807 68.880859 19.056641 C 68.813151 19.077474 68.727213 19.090495 68.623047 19.095703 C 68.51888 19.10612 68.388672 19.111328 68.232422 19.111328 C 68.076172 19.111328 67.945963 19.10612 67.841797 19.095703 C 67.73763 19.085286 67.651693 19.069661 67.583984 19.048828 C 67.521484 19.027995 67.472005 18.999349 67.435547 18.962891 C 67.399089 18.926432 67.370443 18.882161 67.349609 18.830078 L 64.958984 12.150391 L 64.904297 11.986328 C 64.89388 11.939453 64.886068 11.905599 64.880859 11.884766 L 64.880859 11.822266 C 64.880859 11.780599 64.891276 11.744141 64.912109 11.712891 C 64.932943 11.681641 64.966797 11.658203 65.013672 11.642578 C 65.065755 11.621745 65.130859 11.608724 65.208984 11.603516 C 65.292318 11.598307 65.39388 11.595703 65.513672 11.595703 z M 72.560547 17.314453 C 72.873047 17.314453 73.089193 17.374349 73.208984 17.494141 C 73.328776 17.613932 73.388672 17.853516 73.388672 18.212891 C 73.388672 18.582682 73.326172 18.830078 73.201172 18.955078 C 73.08138 19.07487 72.860026 19.134766 72.537109 19.134766 C 72.22461 19.134766 72.008463 19.07487 71.888672 18.955078 C 71.76888 18.835287 71.708984 18.595703 71.708984 18.236328 C 71.708984 17.866537 71.76888 17.621745 71.888672 17.501953 C 72.013672 17.376953 72.237631 17.314453 72.560547 17.314453 z " />
<metadata
   id="metadata5884"><rdf:RDF><cc:Work
       rdf:about=""><dc:title>PT_Img_infoiber_a</dc:title></cc:Work></rdf:RDF></metadata><g
   id="g584"
   transform="matrix(0.19090789,0,0,-0.19090789,6.4697621,23.000111)"><g
     id="g214"
     transform="translate(62.6699,82.1602)"
     clip-path="url(#clipPath495)"><path
       d="m 0,0 c -3.727,5.841 -12.137,3.562 -12.762,-3.091 -0.168,-1.979 1.078,-3.543 0.331,-4.789 -0.899,-1.515 -2.916,-1.517 -3.812,-0.348 -2.964,3.843 -6.309,9.969 -7.898,17.436 -0.85,3.92 -4.331,23.871 -21.05,23.871 -9.427,0 -17.455,-7.639 -17.479,-17.448 -0.026,-17.148 19.644,-20.679 31.912,-25.808 9.658,-4.037 17.2,-11.761 15.609,-22.076 -0.556,-3.6 -3.252,-6.043 -6.513,-6.043 -13.075,0 -7.181,23.889 -23.529,24.616 -5.753,0.257 -11.614,-5.124 -11.45,-11.441 0.235,-8.635 8.894,-13.526 17.993,-15.652 15.207,-3.556 26.561,-20.12 21.398,-37.232 -0.478,-1.602 0.437,-3.962 2.909,-4.147 1.103,-0.084 1.977,0.54 2.758,1.216 12.291,10.758 20.169,25.7 21.341,42.974 C 10.688,-24.049 7.023,-11 0,0"
       style="fill:#40afde;fill-opacity:1;fill-rule:nonzero;stroke:none"
       id="path216" /></g><g
     id="g218"
     transform="translate(56.8047,94.0244)"
     clip-path="url(#clipPath489)"><path
       d="m 0,0 c 5.859,0 10.608,4.748 10.608,10.606 0,5.863 -4.749,10.609 -10.608,10.609 -5.858,0 -10.606,-4.746 -10.606,-10.609 C -10.606,4.748 -5.858,0 0,0"
       style="fill:#40afde;fill-opacity:1;fill-rule:nonzero;stroke:none"
       id="path220" /></g><path
     d="m 105.228,85.519 h 9.831 V 21.734 h -9.831 z"
     style="fill:#000000;fill-opacity:1;fill-rule:nonzero;stroke:none"
     id="path222"
     clip-path="url(#clipPath483)" /><g
     id="g224"
     transform="translate(134.9922,31.1475)"
     clip-path="url(#clipPath477)"><path
       d="M 0,0 C 5.223,-2.303 16.112,-2.037 16.557,6.02 V 21.056 C 15.846,28.495 5.492,29.734 0,26.278 Z M 0,54.371 V 35.402 C 10.45,40.448 26.473,34.957 26.386,21.409 V 5.034 C 24.883,-13.824 3.54,-12.144 -9.831,-6.83 v 61.201 z"
       style="fill:#000000;fill-opacity:1;fill-rule:nonzero;stroke:none"
       id="path226" /></g><g
     id="g228"
     transform="translate(220.9844,21.7334)"
     clip-path="url(#clipPath471)"><path
       d="m 0,0 v 30.903 c -0.246,6.157 7.979,7.981 13.015,5.638 v 9.622 c -1.54,0.329 -3.119,0.501 -4.693,0.501 -9.03,0 -18.15,-5.05 -18.15,-15.761 L -9.828,0 Z"
       style="fill:#000000;fill-opacity:1;fill-rule:nonzero;stroke:none"
       id="path230" /></g><g
     id="g232"
     transform="translate(177.9443,48.208)"
     clip-path="url(#clipPath465)"><path
       d="M 0,0 V 4.429 C -0.179,8.87 4.058,11.06 8.323,11.056 12.589,11.06 16.825,8.87 16.646,4.429 V 0 Z M 8.323,-8.058 H 26.477 V 4.429 c 0,10.711 -9.124,15.76 -18.154,15.76 -9.029,0 -18.153,-5.049 -18.153,-15.76 v -16.117 c 0,-10.537 9.124,-15.759 18.153,-15.759 6.022,0 12.928,3.097 16.47,9.384 l -8.146,4.694 C 12.929,-21.075 -0.177,-19.213 0,-11.688 v 3.63 z"
       style="fill:#000000;fill-opacity:1;fill-rule:nonzero;stroke:none"
       id="path234" /></g></g><path
   style="fill:#000000;fill-opacity:1;stroke:none;stroke-width:0.0308878"
   d="m 67.791908,19.072901 c -0.202812,-0.03226 -0.348678,-0.09912 -0.391729,-0.179564 -0.03524,-0.06585 -2.419426,-6.726152 -2.474919,-6.913777 -0.08897,-0.30081 0.02398,-0.365128 0.635545,-0.361892 0.434944,0.0023 0.536415,0.02879 0.635971,0.166045 0.03081,0.04247 0.502571,1.383775 1.048365,2.980677 0.545795,1.596901 1.002693,2.922203 1.01533,2.945115 0.01372,0.02487 0.220235,-0.541375 0.51256,-1.405397 0.269271,-0.79588 0.72712,-2.148981 1.017443,-3.006891 l 0.527859,-1.559836 0.122082,-0.0601 c 0.101838,-0.05013 0.188734,-0.06016 0.524017,-0.06046 0.420889,-3.81e-4 0.510467,0.02137 0.573573,0.139287 0.02508,0.04685 0.02421,0.105736 -0.0033,0.223229 -0.05887,0.251692 -2.433796,6.853364 -2.496449,6.93947 -0.0309,0.04247 -0.109887,0.09519 -0.17552,0.117147 -0.150747,0.05044 -0.837158,0.07412 -1.070861,0.03695 z"
   id="path7444" /><path
   style="fill:#000000;fill-opacity:1;stroke:none;stroke-width:0.0308878"
   d="m 72.335796,19.099646 c -0.472076,-0.04734 -0.599321,-0.236988 -0.597991,-0.891261 6.62e-4,-0.325395 0.01098,-0.408399 0.0656,-0.52794 0.119659,-0.261847 0.340036,-0.349586 0.834351,-0.332178 0.37496,0.0132 0.514129,0.07431 0.628208,0.275834 0.07255,0.128153 0.07722,0.163519 0.07722,0.584284 0,0.394148 -0.008,0.465239 -0.0669,0.592636 -0.05,0.108207 -0.09954,0.161414 -0.196158,0.210706 -0.155398,0.07928 -0.465374,0.115892 -0.744338,0.08792 z"
   id="path7446" /><path
   style="fill:#000000;fill-opacity:1;stroke:none;stroke-width:0.0308878"
   d="m 77.636598,19.175381 c -0.429081,-0.03831 -1.137535,-0.210804 -1.508705,-0.367343 -0.616826,-0.260144 -0.707965,-0.372494 -0.725476,-0.894317 -0.01355,-0.403825 0.03288,-0.570196 0.159121,-0.570196 0.04114,0 0.260766,0.0963 0.48806,0.213989 1.087539,0.563134 2.18885,0.710132 3.027431,0.404088 0.718667,-0.262281 1.091895,-0.777618 1.129929,-1.560156 0.02813,-0.578764 -0.10331,-0.936463 -0.482876,-1.314093 -0.517765,-0.515125 -1.078792,-0.677656 -2.340298,-0.677991 -0.378162,-9.3e-5 -0.72138,-0.01392 -0.765881,-0.03084 -0.225803,-0.08585 -0.278926,-0.760175 -0.07448,-0.9454 0.05866,-0.05314 0.138132,-0.06057 0.841521,-0.0786 0.87972,-0.02256 1.025143,-0.04764 1.440834,-0.248492 0.619815,-0.299476 0.987169,-0.906336 0.987419,-1.63119 3.15e-4,-0.916268 -0.561774,-1.4967465 -1.515299,-1.5648724 -0.622986,-0.04451 -1.229393,0.1486294 -2.073842,0.6605134 -0.254329,0.154169 -0.349011,0.196523 -0.406864,0.182003 -0.112554,-0.02825 -0.150865,-0.184244 -0.137031,-0.557966 0.01038,-0.2805288 0.02114,-0.3309906 0.09404,-0.4411406 0.152181,-0.2299617 0.673471,-0.5242844 1.262858,-0.7130159 0.390133,-0.1249272 0.741326,-0.1883552 1.169926,-0.2112969 1.110162,-0.059424 2.066731,0.2989881 2.556042,0.9577105 0.316465,0.4260319 0.453341,0.8933679 0.449175,1.5336259 -0.0033,0.505635 -0.08919,0.884413 -0.286647,1.263949 -0.287401,0.552421 -0.84292,0.979873 -1.457947,1.121838 -0.153618,0.03546 -0.198598,0.08485 -0.07812,0.08578 0.138278,0.0011 0.485551,0.08968 0.722822,0.184452 0.786336,0.314064 1.299351,0.869871 1.512982,1.639182 0.08183,0.29468 0.0745,0.94186 -0.01479,1.306508 -0.308675,1.260526 -1.260369,2.031455 -2.753147,2.230215 -0.295343,0.03932 -0.908799,0.05091 -1.220751,0.02307 z"
   id="path7448" /></svg>
