<?xml version="1.0" encoding="UTF-8" standalone="no"?>
<!-- Created with Inkscape (http://www.inkscape.org/) -->

<svg
   width="24"
   height="24"
   viewBox="0 0 6.3499999 6.35"
   version="1.1"
   id="svg325"
   xml:space="preserve"
   inkscape:version="1.2.1 (9c6d41e410, 2022-07-14)"
   sodipodi:docname="TB_iber.svg"
   xmlns:inkscape="http://www.inkscape.org/namespaces/inkscape"
   xmlns:sodipodi="http://sodipodi.sourceforge.net/DTD/sodipodi-0.dtd"
   xmlns="http://www.w3.org/2000/svg"
   xmlns:svg="http://www.w3.org/2000/svg"><sodipodi:namedview
     id="namedview327"
     pagecolor="#505050"
     bordercolor="#ffffff"
     borderopacity="1"
     inkscape:showpageshadow="0"
     inkscape:pageopacity="0"
     inkscape:pagecheckerboard="1"
     inkscape:deskcolor="#505050"
     inkscape:document-units="mm"
     showgrid="false"
     inkscape:zoom="23.860606"
     inkscape:cx="6.6427483"
     inkscape:cy="14.79426"
     inkscape:window-width="1920"
     inkscape:window-height="1017"
     inkscape:window-x="-8"
     inkscape:window-y="-8"
     inkscape:window-maximized="1"
     inkscape:current-layer="layer1" /><defs
     id="defs322"><clipPath
       clipPathUnits="userSpaceOnUse"
       id="clipPath18"><path
         d="M 0,50 H 50 V 0 H 0 Z"
         id="path16" /></clipPath></defs><g
     inkscape:label="Capa 1"
     inkscape:groupmode="layer"
     id="layer1"><g
       id="g14"
       clip-path="url(#clipPath18)"
       transform="matrix(0.11511783,0,0,-0.11511783,0.29707569,6.0529457)"><g
         id="g20"
         transform="translate(36.4492,35.6484)"><path
           d="m 0,0 c -1.615,2.536 -5.266,1.546 -5.537,-1.34 -0.074,-0.86 0.467,-1.537 0.142,-2.077 -0.39,-0.66 -1.263,-0.66 -1.654,-0.152 -1.285,1.666 -2.736,4.325 -3.425,7.563 -0.369,1.701 -1.88,10.359 -9.135,10.359 -4.09,0 -7.572,-3.313 -7.584,-7.57 -0.011,-7.441 8.525,-8.974 13.846,-11.199 4.193,-1.751 7.464,-5.102 6.773,-9.578 -0.239,-1.563 -1.412,-2.623 -2.826,-2.623 -5.673,0 -3.115,10.366 -10.209,10.682 -2.496,0.112 -5.037,-2.223 -4.968,-4.965 0.1,-3.746 3.859,-5.87 7.807,-6.791 6.596,-1.543 11.526,-8.729 9.286,-16.155 -0.207,-0.697 0.189,-1.72 1.261,-1.8 0.479,-0.036 0.86,0.234 1.198,0.529 5.332,4.668 8.75,11.148 9.257,18.646 C 4.637,-10.434 3.047,-4.773 0,0"
           style="fill:#40afde;fill-opacity:1;fill-rule:nonzero;stroke:none"
           id="path22" /></g><g
         id="g24"
         transform="translate(33.9023,40.7964)"><path
           d="M 0,0 C 2.545,0 4.604,2.061 4.604,4.604 4.604,7.144 2.545,9.205 0,9.205 -2.541,9.205 -4.602,7.144 -4.602,4.604 -4.602,2.061 -2.541,0 0,0"
           style="fill:#40afde;fill-opacity:1;fill-rule:nonzero;stroke:none"
           id="path26" /></g></g></g></svg>
