<?xml version="1.0" encoding="UTF-8" standalone="no"?>
<svg
   width="24"
   height="24"
   version="1.1"
   id="svg4435"
   sodipodi:docname="tb_post_resultonview.svg"
   inkscape:version="1.2.1 (9c6d41e410, 2022-07-14)"
   xmlns:inkscape="http://www.inkscape.org/namespaces/inkscape"
   xmlns:sodipodi="http://sodipodi.sourceforge.net/DTD/sodipodi-0.dtd"
   xmlns="http://www.w3.org/2000/svg"
   xmlns:svg="http://www.w3.org/2000/svg">
  <defs
     id="defs4439" />
  <sodipodi:namedview
     id="namedview4437"
     pagecolor="#505050"
     bordercolor="#ffffff"
     borderopacity="1"
     inkscape:showpageshadow="0"
     inkscape:pageopacity="0"
     inkscape:pagecheckerboard="1"
     inkscape:deskcolor="#505050"
     showgrid="false"
     inkscape:zoom="34.875"
     inkscape:cx="10.996416"
     inkscape:cy="11.985663"
     inkscape:window-width="1680"
     inkscape:window-height="1027"
     inkscape:window-x="1912"
     inkscape:window-y="17"
     inkscape:window-maximized="1"
     inkscape:current-layer="svg4435" />
  <title
     id="title2785">TB_Post_resultonview</title>
  <path
     fill="#999999"
     stroke-width="0"
     d="m 1.48552,20.8373 v 0 c 0,-0.8894 0.7006,-1.61043 1.56485,-1.61043 v 0 c 0.41501,0 0.81304,0.16967 1.10651,0.47168 0.29346,0.30201 0.45834,0.71162 0.45834,1.13873 v 0 c 0,0.8894 -0.70061,1.61043 -1.56485,1.61043 v 0 c -0.86425,0 -1.56485,-0.72101 -1.56485,-1.61043 z m 1.56485,-1.61043 v 3.22084 M 1.48552,20.83728 h 3.1297"
     id="svg_2" />
  <path
     id="svg_1"
     d="M 4.2929688 1.2207031 C 3.0275 1.2207031 2.0019531 2.1550718 2.0019531 3.3066406 L 2.0019531 8.5175781 L 2.0019531 11.646484 C 2.0019531 12.798053 3.02751 13.730469 4.2929688 13.730469 L 5.3339844 13.730469 L 3.8027344 19.033203 L 10.333984 13.730469 L 19.707031 13.730469 C 20.9725 13.730469 21.998047 12.798053 21.998047 11.646484 L 21.998047 8.5175781 L 21.998047 3.3066406 C 21.998047 2.7536412 21.755881 2.2230609 21.326172 1.8320312 C 20.896472 1.4410016 20.314731 1.2207031 19.707031 1.2207031 L 10.333984 1.2207031 L 5.3339844 1.2207031 L 4.2929688 1.2207031 z M 2.6835938 3.5644531 L 5.0839844 3.5644531 C 5.8864892 3.5644531 6.4730145 3.7099613 6.8457031 4 C 7.2211121 4.2900387 7.4101563 4.7480477 7.4101562 5.375 C 7.4101562 5.8085932 7.3111 6.1650394 7.1152344 6.4433594 C 6.9220892 6.7216793 6.6300124 6.926758 6.2382812 7.0585938 C 6.4531893 7.1113281 6.6457911 7.230469 6.8144531 7.4179688 C 6.9858355 7.6025388 7.1579285 7.8837896 7.3320312 8.2617188 L 8.1855469 10.125 L 6.5117188 10.125 L 5.7695312 8.4941406 C 5.6199117 8.1660161 5.4675602 7.9423827 5.3125 7.8222656 C 5.1601601 7.7021486 4.9549321 7.6425781 4.6992188 7.6425781 L 4.2558594 7.6425781 L 4.2558594 10.125 L 2.6835938 10.125 L 2.6835938 3.5644531 z M 4.2558594 4.7910156 L 4.2558594 6.4726562 L 4.9160156 6.4726562 C 5.2451786 6.4726562 5.4815884 6.4072264 5.6230469 6.2753906 C 5.7672257 6.1435549 5.8378906 5.9267574 5.8378906 5.625 C 5.8378906 5.3261723 5.7672257 5.1132811 5.6230469 4.984375 C 5.4815884 4.8554689 5.2451786 4.7910156 4.9160156 4.7910156 L 4.2558594 4.7910156 z M 11.244141 5.0839844 C 11.962314 5.0839844 12.536981 5.3173834 12.966797 5.7832031 C 13.399333 6.2490228 13.615234 6.8710948 13.615234 7.6503906 L 13.615234 8.0996094 L 10.201172 8.0996094 C 10.236536 8.4687495 10.360078 8.7451174 10.572266 8.9296875 C 10.784453 9.1142576 11.080088 9.2070312 11.460938 9.2070312 C 11.768338 9.2070312 12.083295 9.1591796 12.404297 9.0625 C 12.728019 8.9628908 13.060346 8.8124997 13.400391 8.6132812 L 13.400391 9.8261719 C 13.054906 9.9667967 12.708766 10.072266 12.363281 10.142578 C 12.017796 10.21582 11.671657 10.251953 11.326172 10.251953 C 10.499184 10.251953 9.8562244 10.027343 9.3964844 9.5761719 C 8.9394647 9.1220709 8.7109375 8.4853505 8.7109375 7.6679688 C 8.7109375 6.8652354 8.935907 6.235351 9.3847656 5.7753906 C 9.8363446 5.3154303 10.455238 5.0839844 11.244141 5.0839844 z M 16.476562 5.0839844 C 16.745878 5.0839844 17.0277 5.1064454 17.324219 5.1503906 C 17.620737 5.1943359 17.944763 5.263672 18.292969 5.3574219 L 18.292969 6.5527344 C 17.980128 6.4121096 17.677797 6.3066405 17.386719 6.2363281 C 17.095641 6.1660157 16.820934 6.1308594 16.5625 6.1308594 C 16.285024 6.1308594 16.077424 6.1679689 15.941406 6.2441406 C 15.808109 6.3173827 15.742188 6.4326174 15.742188 6.5878906 C 15.742188 6.713867 15.791925 6.8095704 15.892578 6.8769531 C 15.995952 6.9443358 16.179485 6.9951172 16.443359 7.0273438 L 16.701172 7.0664062 C 17.44927 7.1689452 17.952504 7.3378909 18.210938 7.5722656 C 18.469371 7.8066403 18.597656 8.1748053 18.597656 8.6757812 C 18.597656 9.2001946 18.419634 9.5937503 18.060547 9.8574219 C 17.70146 10.121093 17.163905 10.251953 16.451172 10.251953 C 16.149212 10.251953 15.837394 10.226562 15.513672 10.173828 C 15.19267 10.124024 14.861529 10.047851 14.521484 9.9453125 L 14.521484 8.75 C 14.812562 8.9023435 15.111336 9.0156251 15.416016 9.0917969 C 15.723416 9.1679686 16.034048 9.2070312 16.349609 9.2070312 C 16.635247 9.2070312 16.849962 9.165039 16.994141 9.0800781 C 17.138319 8.9951173 17.210937 8.8681638 17.210938 8.7011719 C 17.210938 8.5605471 17.1612 8.4560546 17.060547 8.3886719 C 16.962614 8.3183595 16.765269 8.2646484 16.46875 8.2265625 L 16.210938 8.1914062 C 15.560773 8.1035157 15.104904 7.9404294 14.84375 7.703125 C 14.582596 7.4658206 14.453125 7.1064447 14.453125 6.6230469 C 14.453125 6.1015632 14.619289 5.7148434 14.951172 5.4628906 C 15.283055 5.2109378 15.791033 5.0839844 16.476562 5.0839844 z M 11.236328 6.1308594 C 10.953411 6.1308594 10.723698 6.2177737 10.546875 6.390625 C 10.370052 6.5605467 10.260323 6.806641 10.216797 7.1289062 L 12.113281 7.1289062 C 12.113281 6.8300785 12.032362 6.5898435 11.869141 6.4082031 C 11.70864 6.2236331 11.497482 6.1308594 11.236328 6.1308594 z M 19.847656 8.4238281 L 21.316406 8.4238281 L 21.316406 10.125 L 19.847656 10.125 L 19.847656 8.4238281 z "
     style="fill:#40afde;fill-opacity:1" />
  <path
     style="fill:#000000;fill-opacity:1;stroke:#000000;stroke-width:0.0286738"
     d="M 2.7096774,6.8360777 V 3.5646285 l 1.4695341,0.013644 c 1.749284,0.016242 1.9339862,0.038812 2.4324378,0.297235 0.3620508,0.1877059 0.6418936,0.5624604 0.7298085,0.9773303 0.053697,0.2533944 0.053103,0.8027996 -0.00112,1.032761 C 7.2257276,6.3717205 6.9102936,6.7443472 6.4250337,6.9668662 l -0.1986225,0.09108 0.193319,0.090465 c 0.2331366,0.1090979 0.4428258,0.3139246 0.6318449,0.6171934 0.073529,0.117973 0.3519741,0.6899415 0.6187661,1.2710411 L 8.1554176,10.09319 7.3484155,10.10079 C 6.904564,10.105007 6.5318082,10.098555 6.5200691,10.086477 6.5083295,10.074399 6.3291599,9.6903226 6.121914,9.2329749 5.585559,8.0493537 5.484548,7.8862285 5.1939169,7.7343283 5.0580848,7.6633348 5.0147277,7.6565055 4.6379928,7.6467647 L 4.2293907,7.6361999 V 8.8718635 10.107527 H 3.4695341 2.7096774 Z M 5.4069009,6.4120585 C 5.6681075,6.3122674 5.7869646,6.1461382 5.8338475,5.8153063 5.8851254,5.453459 5.7876341,5.0852545 5.6047467,4.95004 5.4278407,4.8192477 5.304965,4.7948743 4.7526882,4.7810267 L 4.2293907,4.7679058 v 0.844243 c 0,0.4643337 0.00968,0.8543186 0.021505,0.8666328 0.011828,0.012315 0.2408602,0.016058 0.5089605,0.00832 0.405037,-0.011693 0.5144383,-0.02438 0.6470443,-0.075041 z"
     id="path5117" />
  <path
     style="fill:#000000;fill-opacity:1;stroke:#000000;stroke-width:0.0286738"
     d="M 10.982079,10.220975 C 9.967074,10.135256 9.2572013,9.6491894 8.9214883,8.810039 8.7800729,8.4565563 8.7453074,8.2227556 8.7477409,7.6415771 c 0.002,-0.4771629 0.00974,-0.5584828 0.077011,-0.8092855 0.1834292,-0.6838312 0.5817736,-1.179291 1.1824161,-1.4706865 0.309185,-0.1499976 0.511029,-0.2044087 0.917196,-0.2472491 0.547274,-0.057724 1.105341,0.043325 1.520024,0.2752289 0.231543,0.1294864 0.554256,0.4278622 0.708633,0.6551922 0.297113,0.4375187 0.420977,0.8762233 0.444769,1.5752946 l 0.01634,0.4802867 h -1.713549 -1.713549 l 0.02026,0.1350739 c 0.04968,0.3312587 0.215604,0.6132845 0.455999,0.7750531 0.192028,0.1292204 0.38602,0.1829297 0.720221,0.1994031 0.523384,0.025799 1.10737,-0.1147496 1.689771,-0.4066785 l 0.304207,-0.1524837 -0.0077,0.5880528 -0.0077,0.588053 -0.18638,0.07071 C 12.534368,10.140828 11.623452,10.275139 10.982079,10.220975 Z M 12.107841,6.97092 C 12.091849,6.7716937 11.997323,6.5340709 11.877923,6.3929448 11.83728,6.3449068 11.735217,6.2674874 11.651117,6.2209018 11.51185,6.1437573 11.473906,6.1362007 11.225806,6.1362007 c -0.233766,0 -0.295039,0.010617 -0.432016,0.074859 -0.188635,0.088469 -0.35026,0.2456859 -0.445709,0.4335524 -0.07306,0.1437992 -0.159613,0.4661975 -0.132451,0.4933599 0.0089,0.00888 0.441573,0.01615 0.961533,0.01615 h 0.945384 z"
     id="path6016" />
  <path
     style="fill:#000000;fill-opacity:1;stroke:#000000;stroke-width:0.0286738"
     d="m 16.057348,10.220459 c -0.43119,-0.02952 -0.969566,-0.124944 -1.38295,-0.2451182 l -0.151101,-0.043926 v -0.571442 c 0,-0.3142931 0.01109,-0.571442 0.02464,-0.571442 0.01355,0 0.121287,0.044655 0.239416,0.099234 0.781737,0.3611851 1.973004,0.4398279 2.282659,0.1506924 0.156197,-0.145846 0.196178,-0.3866477 0.09244,-0.5567784 C 17.068123,8.3269761 16.932409,8.2812639 16.284971,8.1861201 15.758219,8.1087117 15.473535,8.0333824 15.186914,7.8955658 14.787905,7.7037103 14.600576,7.4642217 14.511251,7.0317723 14.370654,6.3510958 14.566324,5.7493308 15.032554,5.4285561 15.59679,5.0403519 16.813879,4.994485 18.064516,5.3142944 l 0.200717,0.051327 0.0078,0.5821378 c 0.0062,0.4622407 2.58e-4,0.5789075 -0.02867,0.5664533 -0.650962,-0.2801371 -1.265571,-0.4110868 -1.813061,-0.3862939 -0.319237,0.014456 -0.494111,0.073181 -0.617651,0.2074144 -0.05985,0.065029 -0.07169,0.1063037 -0.07169,0.2499746 0,0.1577002 0.0077,0.1789962 0.09253,0.2547621 0.118889,0.1062274 0.283802,0.151934 0.880667,0.2440818 1.454295,0.2245235 1.866499,0.5833896 1.858893,1.6183578 -0.0035,0.4736051 -0.137842,0.8031816 -0.433933,1.064398 -0.40367,0.3561237 -1.145677,0.5177077 -2.082746,0.4535517 z"
     id="path6018" />
  <path
     style="fill:#000000;fill-opacity:1;stroke:#000000;stroke-width:0.0286738"
     d="M 19.856631,9.2759857 V 8.4444444 h 0.716846 0.716846 v 0.8315413 0.8315413 h -0.716846 -0.716846 z"
     id="path6020" />
</svg>
