<svg width="24" height="24" xmlns="http://www.w3.org/2000/svg">
 <title>TB_Pre_DTM</title>

 <g id="Layer_1">
  <title>Layer 1</title>
  <path id="svg_3" d="m1.37599,22.54423l9.9965,-18.875l9.9965,18.875l-19.993,0z" stroke-width="0" fill="#7f3f00"/>
  <path id="svg_4" d="m3.3104,22.54431l3.68621,-21.375l3.68621,21.375l-7.37242,0z" stroke-width="0" fill="#999999"/>
  <path id="svg_1" d="m1.3729,22.54435l3.68621,-16l13.31121,16l-16.99742,0z" stroke-width="0" fill="#007f00"/>
  <path transform="rotate(-90, 15.4531, 16.4512)" id="svg_5" d="m9.33,9.20158l6.12311,0l0,0c3.3817,0 6.12311,3.24576 6.12311,7.24961c0,4.00385 -2.74141,7.24961 -6.12311,7.24961l-6.12311,0l0,-14.49922z" stroke-width="0" fill="#00ff00"/>
  <path id="svg_6" d="m16.91993,4.60386l2.28223,-2.64872l2.28223,2.64872l-1.14111,0l0,2.66147l-2.28223,0l0,-2.66147l-1.14111,0z" stroke-width="0" fill="#ff0000"/>
 </g>
</svg>