<svg width="24" height="24" xmlns="http://www.w3.org/2000/svg" xmlns:undefined="http://sodipodi.sourceforge.net/DTD/sodipodi-0.dtd" xmlns:undefined="http://www.inkscape.org/namespaces/inkscape" version="1.1">

 <title id="title2">TB_Pre_ENCcriteria</title>
 <g id="Layer_1">
  <title id="title4">Layer 1</title>
  <rect id="svg_3" height="6.4375" width="9.5" y="7.75" x="7.125" fill="#0000ff"/>
  <path transform="rotate(-90, 11.875, 17.3125)" id="svg_5" d="m1.12668,2.2482l26.87481,0c-2.96851,0 -16.13137,5.68142 -16.06887,15.12546c0.0625,9.44404 13.10036,15.00046 16.06887,15.00046l-26.87481,0l0,0c-2.96851,0 -5.37496,-6.74392 -5.37496,-15.06296c0,-8.31904 2.40645,-15.06296 5.37496,-15.06296z" stroke-width="0" fill="#7f3f00"/>
  <path transform="rotate(90, 11.873, 17.6133)" id="svg_6" d="m8.05917,9.58238l3.26899,1.5l2.49029,0.875c1.79499,1.875 1.8682,1.26251 1.8682,5.74959c0,4.48709 -2.09658,2.23877 -3.96939,5.30963l-3.6581,2.62746l0,-16.06168l0.00001,0z" stroke-width="0" fill="#40afde"/>
  <rect id="svg_1" height="18" width="1.125" y="6.375" x="6.25" fill="#999999"/>
  <rect id="svg_2" height="18" width="1.125" y="6.375" x="16.125" fill="#999999"/>
 </g>
 <metadata id="metadata2761">TB_Post_secc</metadata>
</svg>