<svg width="24" height="24" xmlns="http://www.w3.org/2000/svg">
 <title>TB_Pre_Plugins</title>

 <g id="Layer_1">
  <title>Layer 1</title>
  <path fill="#40afde" d="m12.72365,16.83146l-2.7442,2.89544l0,0c-1.51558,1.59911 -3.90449,1.6712 -5.33579,0.16101c-1.4313,-1.51018 -1.36298,-4.03076 0.1526,-5.62987l2.7442,-2.89544l5.1832,5.46886l-0.00001,-0.00001z" id="svg_7"/>
  <path fill="#40afde" d="m11.43004,7.48177l2.7442,-2.89544l0,0c1.51558,-1.59911 3.90449,-1.6712 5.33579,-0.16101c1.4313,1.51018 1.36298,4.03076 -0.1526,5.62987l-2.7442,2.89544l-5.1832,-5.46886l0.00001,0.00001z" id="svg_9"/>
  <path fill="#40afde" d="m7.76131,13.1512l2.60501,-2.74858l0,0c0.34127,-0.36008 0.81927,-0.43951 1.06766,-0.17744c0.24838,0.26207 0.1731,0.76642 -0.16817,1.1265l-2.60501,2.74858l0,0c-0.34126,0.36007 -0.81927,0.43951 -1.06766,0.17744c-0.24838,-0.26207 -0.1731,-0.76642 0.16817,-1.1265z" id="svg_12"/>
  <path fill="#40afde" d="m10.15632,15.60163l2.60501,-2.74858l0,0c0.34127,-0.36008 0.81927,-0.43951 1.06766,-0.17744c0.24838,0.26207 0.1731,0.76642 -0.16817,1.1265l-2.60501,2.74858l0,0c-0.34126,0.36007 -0.81927,0.43951 -1.06766,0.17744c-0.24838,-0.26207 -0.1731,-0.76642 0.16817,-1.1265z" id="svg_13"/>
  <path fill="#40afde" d="m0.65496,21.57172c0.15781,-2.21759 3.23154,-1.35855 3.38935,-3.57615l1.74955,1.84598c-0.15781,2.21759 -3.23154,1.35855 -3.38935,3.57615l-1.74955,-1.84598z" id="svg_14"/>
  <path fill="#40afde" d="m23.51692,2.58843c-0.15781,2.21759 -3.23154,1.35855 -3.38935,3.57615l-1.74955,-1.84598c0.15781,-2.21759 3.23154,-1.35855 3.38935,-3.57615l1.74955,1.84598z" id="svg_15"/>
 </g>
</svg>